
{
  "header": {
    "reportVersion": 2,
    "event": "Allocation failed - JavaScript heap out of memory",
    "trigger": "FatalError",
    "filename": "report.20200508.165809.2256.0.001.json",
    "dumpEventTime": "2020-05-08T16:58:09Z",
    "dumpEventTimeStamp": "1588967889105",
    "processId": 2256,
    "threadId": null,
    "cwd": "C:\\ionic\\pubnews_v5",
    "commandLine": [
      "C:\\Program Files\\nodejs\\node.exe",
      "C:\\Program Files\\JetBrains\\PhpStorm 2019.3.3\\plugins\\JavaScriptLanguage\\jsLanguageServicesImpl\\js-language-service.js",
      "-id=1588962415499",
      "-debug-name=typescript"
    ],
    "nodejsVersion": "v12.16.2",
    "wordSize": 64,
    "arch": "x64",
    "platform": "win32",
    "componentVersions": {
      "node": "12.16.2",
      "v8": "7.8.279.23-node.34",
      "uv": "1.34.2",
      "zlib": "1.2.11",
      "brotli": "1.0.7",
      "ares": "1.15.0",
      "modules": "72",
      "nghttp2": "1.40.0",
      "napi": "5",
      "llhttp": "2.0.4",
      "http_parser": "2.9.3",
      "openssl": "1.1.1e",
      "cldr": "36.0",
      "icu": "65.1",
      "tz": "2019c",
      "unicode": "12.1"
    },
    "release": {
      "name": "node",
      "lts": "Erbium",
      "headersUrl": "https://nodejs.org/download/release/v12.16.2/node-v12.16.2-headers.tar.gz",
      "sourceUrl": "https://nodejs.org/download/release/v12.16.2/node-v12.16.2.tar.gz",
      "libUrl": "https://nodejs.org/download/release/v12.16.2/win-x64/node.lib"
    },
    "osName": "Windows_NT",
    "osRelease": "10.0.17763",
    "osVersion": "Windows 10 Home",
    "osMachine": "x86_64",
    "cpus": [
      {
        "model": "Intel(R) Core(TM) i3 CPU         540  @ 3.07GHz",
        "speed": 3059,
        "user": 1160593,
        "nice": 0,
        "sys": 1436890,
        "idle": 5289812,
        "irq": 45718
      },
      {
        "model": "Intel(R) Core(TM) i3 CPU         540  @ 3.07GHz",
        "speed": 3059,
        "user": 1138578,
        "nice": 0,
        "sys": 1114953,
        "idle": 5633484,
        "irq": 8625
      },
      {
        "model": "Intel(R) Core(TM) i3 CPU         540  @ 3.07GHz",
        "speed": 3059,
        "user": 1236203,
        "nice": 0,
        "sys": 1327218,
        "idle": 5323578,
        "irq": 8093
      },
      {
        "model": "Intel(R) Core(TM) i3 CPU         540  @ 3.07GHz",
        "speed": 3059,
        "user": 1233437,
        "nice": 0,
        "sys": 1246875,
        "idle": 5406687,
        "irq": 5828
      }
    ],
    "host": "DESKTOP-3KQRPVN"
  },
  "javascriptStack": {
    "message": "No stack.",
    "stack": [
      "Unavailable."
    ]
  },
  "nativeStack": [
    {
      "pc": "0x00007ff7edcc2309",
      "symbol": ""
    },
    {
      "pc": "0x00007ff7edcc6869",
      "symbol": ""
    },
    {
      "pc": "0x00007ff7edcc56e8",
      "symbol": ""
    },
    {
      "pc": "0x00007ff7eddedd82",
      "symbol": ""
    },
    {
      "pc": "0x00007ff7ee60a27e",
      "symbol": ""
    },
    {
      "pc": "0x00007ff7ee5f2351",
      "symbol": ""
    },
    {
      "pc": "0x00007ff7ee4be8ac",
      "symbol": ""
    },
    {
      "pc": "0x00007ff7ee4c6831",
      "symbol": ""
    },
    {
      "pc": "0x00007ff7ee4bbe03",
      "symbol": ""
    },
    {
      "pc": "0x00007ff7ee4ba474",
      "symbol": ""
    },
    {
      "pc": "0x00007ff7ee4db67d",
      "symbol": ""
    },
    {
      "pc": "0x00007ff7ee2413d1",
      "symbol": ""
    },
    {
      "pc": "0x00007ff7eea5730d",
      "symbol": ""
    },
    {
      "pc": "0x00007ff7eea5823d",
      "symbol": ""
    },
    {
      "pc": "0x00000115d0ff7017",
      "symbol": ""
    }
  ],
  "javascriptHeap": {
    "totalMemory": 269541376,
    "totalCommittedMemory": 269541376,
    "usedMemory": 237276696,
    "availableMemory": 1960608552,
    "memoryLimit": 2197815296,
    "heapSpaces": {
      "read_only_space": {
        "memorySize": 262144,
        "committedMemory": 262144,
        "capacity": 32808,
        "used": 32808,
        "available": 0
      },
      "new_space": {
        "memorySize": 1048576,
        "committedMemory": 1048576,
        "capacity": 1047456,
        "used": 1047448,
        "available": 8
      },
      "old_space": {
        "memorySize": 239738880,
        "committedMemory": 239738880,
        "capacity": 239284000,
        "used": 209148456,
        "available": 30135544
      },
      "code_space": {
        "memorySize": 3575808,
        "committedMemory": 3575808,
        "capacity": 3384960,
        "used": 2408640,
        "available": 976320
      },
      "map_space": {
        "memorySize": 790528,
        "committedMemory": 790528,
        "capacity": 789384,
        "used": 614080,
        "available": 175304
      },
      "large_object_space": {
        "memorySize": 24076288,
        "committedMemory": 24076288,
        "capacity": 24022384,
        "used": 24022384,
        "available": 0
      },
      "code_large_object_space": {
        "memorySize": 49152,
        "committedMemory": 49152,
        "capacity": 2880,
        "used": 2880,
        "available": 0
      },
      "new_large_object_space": {
        "memorySize": 0,
        "committedMemory": 0,
        "capacity": 1047456,
        "used": 0,
        "available": 1047456
      }
    }
  },
  "resourceUsage": {
    "userCpuSeconds": 105.546,
    "kernelCpuSeconds": 26.109,
    "cpuConsumptionPercent": 2.40554,
    "maxRss": 376586240,
    "pageFaults": {
      "IORequired": 470872,
      "IONotRequired": 0
    },
    "fsActivity": {
      "reads": 2608,
      "writes": 51936
    }
  },
  "libuv": [
  ],
  "workers": [
  ],
  "environmentVariables": {
    "ALLUSERSPROFILE": "C:\\ProgramData",
    "ANDROID_SDK_ROOT": "C:\\Users\\Marcio\\AppData\\Local\\Android\\Sdk",
    "APPDATA": "C:\\Users\\Marcio\\AppData\\Roaming",
    "ChocolateyInstall": "C:\\ProgramData\\chocolatey",
    "ChocolateyLastPathUpdate": "132274766794464535",
    "CLASSPATCH": "JAVA_HOME",
    "CMDER_ROOT": "C:\\cmder_mini",
    "CommonProgramFiles": "C:\\Program Files\\Common Files",
    "CommonProgramFiles(x86)": "C:\\Program Files (x86)\\Common Files",
    "CommonProgramW6432": "C:\\Program Files\\Common Files",
    "COMPUTERNAME": "DESKTOP-3KQRPVN",
    "ComSpec": "C:\\Windows\\system32\\cmd.exe",
    "DriverData": "C:\\Windows\\System32\\Drivers\\DriverData",
    "GOOGLE_API_KEY": "no",
    "GOOGLE_DEFAULT_CLIENT_ID": "no",
    "GOOGLE_DEFAULT_CLIENT_SECRET": "no",
    "HOMEDRIVE": "C:",
    "HOMEPATH": "\\Users\\Marcio",
    "IDEA_INITIAL_DIRECTORY": "C:\\Windows\\System32",
    "JAVA_HOME": "C:\\Program Files (x86)\\Java\\jdk1.8.0_241",
    "LOCALAPPDATA": "C:\\Users\\Marcio\\AppData\\Local",
    "LOGONSERVER": "\\\\DESKTOP-3KQRPVN",
    "NUMBER_OF_PROCESSORS": "4",
    "OneDrive": "C:\\Users\\Marcio\\OneDrive",
    "OS": "Windows_NT",
    "Path": "C:\\Program Files (x86)\\Common Files\\Oracle\\Java\\javapath;C:\\Python27\\;C:\\Python27\\Scripts;C:\\Windows\\system32;C:\\Windows;C:\\Windows\\System32\\Wbem;C:\\Windows\\System32\\WindowsPowerShell\\v1.0\\;C:\\Windows\\System32\\OpenSSH\\;C:\\Program Files (x86)\\Bitvise SSH Client;C:\\ProgramData\\chocolatey\\bin;C:\\Gradle\\gradle-6.2.2\\bin;C:\\Users\\Marcio\\AppData\\Local\\Android\\Sdk\\platform-tools;C:\\Program Files\\Ampps\\php-5.6;C:\\composer;C:\\Program Files (x86)\\Java\\jdk1.8.0_241\\bin;C:\\Users\\Marcio\\AppData\\Local\\Android\\Sdk\\tools;C:\\Users\\Marcio\\AppData\\Local\\Android\\Sdk\\platforms-tools;C:\\Users\\Marcio\\AppData\\Local\\Android\\Sdk\\emulator;C:\\Program Files (x86)\\Java\\jre1.8.0_241\\bin;C:\\Program Files\\Git\\cmd;C:\\Program Files\\nodejs\\;C:\\Users\\Marcio\\AppData\\Local\\Microsoft\\WindowsApps;C:\\Users\\Marcio\\AppData\\Local\\Programs\\Microsoft VS Code\\bin;C:\\Users\\Marcio\\AppData\\Roaming\\Composer\\vendor\\bin;C:\\Program Files\\JetBrains\\PhpStorm 2019.3.3\\bin;C:\\Users\\Marcio\\AppData\\Roaming\\npm",
    "PATHEXT": ".COM;.EXE;.BAT;.CMD;.VBS;.VBE;.JS;.JSE;.WSF;.WSH;.MSC",
    "PhpStorm": "C:\\Program Files\\JetBrains\\PhpStorm 2019.3.3\\bin;",
    "PROCESSOR_ARCHITECTURE": "AMD64",
    "PROCESSOR_IDENTIFIER": "Intel64 Family 6 Model 37 Stepping 5, GenuineIntel",
    "PROCESSOR_LEVEL": "6",
    "PROCESSOR_REVISION": "2505",
    "ProgramData": "C:\\ProgramData",
    "ProgramFiles": "C:\\Program Files",
    "ProgramFiles(x86)": "C:\\Program Files (x86)",
    "ProgramW6432": "C:\\Program Files",
    "PSModulePath": "C:\\Program Files\\WindowsPowerShell\\Modules;C:\\Windows\\system32\\WindowsPowerShell\\v1.0\\Modules",
    "PUBLIC": "C:\\Users\\Public",
    "SystemDrive": "C:",
    "SystemRoot": "C:\\Windows",
    "TEMP": "C:\\Users\\Marcio\\AppData\\Local\\Temp",
    "TMP": "C:\\Users\\Marcio\\AppData\\Local\\Temp",
    "USERDOMAIN": "DESKTOP-3KQRPVN",
    "USERDOMAIN_ROAMINGPROFILE": "DESKTOP-3KQRPVN",
    "USERNAME": "Marcio",
    "USERPROFILE": "C:\\Users\\Marcio",
    "windir": "C:\\Windows",
    "_JAVA_OPTIONS": "-Xmx1028M",
    "__COMPAT_LAYER": "RunAsAdmin"
  },
  "sharedObjects": [
    "C:\\Program Files\\nodejs\\node.exe",
    "C:\\Windows\\SYSTEM32\\ntdll.dll",
    "C:\\Windows\\System32\\KERNEL32.DLL",
    "C:\\Windows\\System32\\KERNELBASE.dll",
    "C:\\Windows\\SYSTEM32\\apphelp.dll",
    "C:\\Windows\\System32\\WS2_32.dll",
    "C:\\Windows\\System32\\RPCRT4.dll",
    "C:\\Windows\\SYSTEM32\\dbghelp.dll",
    "C:\\Windows\\System32\\ucrtbase.dll",
    "C:\\Windows\\System32\\PSAPI.DLL",
    "C:\\Windows\\System32\\ADVAPI32.dll",
    "C:\\Windows\\System32\\msvcrt.dll",
    "C:\\Windows\\System32\\sechost.dll",
    "C:\\Windows\\SYSTEM32\\IPHLPAPI.DLL",
    "C:\\Windows\\System32\\USER32.dll",
    "C:\\Windows\\System32\\win32u.dll",
    "C:\\Windows\\System32\\GDI32.dll",
    "C:\\Windows\\System32\\gdi32full.dll",
    "C:\\Windows\\System32\\msvcp_win.dll",
    "C:\\Windows\\System32\\CRYPT32.dll",
    "C:\\Windows\\System32\\MSASN1.dll",
    "C:\\Windows\\System32\\bcrypt.dll",
    "C:\\Windows\\SYSTEM32\\USERENV.dll",
    "C:\\Windows\\System32\\profapi.dll",
    "C:\\Windows\\SYSTEM32\\WINMM.dll",
    "C:\\Windows\\SYSTEM32\\winmmbase.dll",
    "C:\\Windows\\System32\\cfgmgr32.dll",
    "C:\\Windows\\System32\\IMM32.DLL",
    "C:\\Windows\\System32\\powrprof.dll",
    "C:\\Windows\\SYSTEM32\\CRYPTBASE.DLL",
    "C:\\Windows\\System32\\bcryptPrimitives.dll",
    "C:\\Windows\\system32\\uxtheme.dll",
    "C:\\Windows\\System32\\combase.dll",
    "C:\\Windows\\system32\\mswsock.dll",
    "C:\\Windows\\System32\\kernel.appcore.dll",
    "C:\\Windows\\SYSTEM32\\DNSAPI.dll",
    "C:\\Windows\\System32\\NSI.dll",
    "C:\\Windows\\system32\\wshbth.dll"
  ]
}