
{
  "header": {
    "reportVersion": 2,
    "event": "Allocation failed - JavaScript heap out of memory",
    "trigger": "FatalError",
    "filename": "report.20200506.193747.3376.0.001.json",
    "dumpEventTime": "2020-05-06T19:37:47Z",
    "dumpEventTimeStamp": "1588804667820",
    "processId": 3376,
    "threadId": null,
    "cwd": "C:\\ionic\\pubnews_v5",
    "commandLine": [
      "node",
      "C:\\Users\\Marcio\\AppData\\Roaming\\npm\\\\node_modules\\cordova\\bin\\cordova",
      "-v",
      "--no-telemetry",
      "--no-update-notifier"
    ],
    "nodejsVersion": "v12.16.2",
    "wordSize": 64,
    "arch": "x64",
    "platform": "win32",
    "componentVersions": {
      "node": "12.16.2",
      "v8": "7.8.279.23-node.34",
      "uv": "1.34.2",
      "zlib": "1.2.11",
      "brotli": "1.0.7",
      "ares": "1.15.0",
      "modules": "72",
      "nghttp2": "1.40.0",
      "napi": "5",
      "llhttp": "2.0.4",
      "http_parser": "2.9.3",
      "openssl": "1.1.1e",
      "cldr": "36.0",
      "icu": "65.1",
      "tz": "2019c",
      "unicode": "12.1"
    },
    "release": {
      "name": "node",
      "lts": "Erbium",
      "headersUrl": "https://nodejs.org/download/release/v12.16.2/node-v12.16.2-headers.tar.gz",
      "sourceUrl": "https://nodejs.org/download/release/v12.16.2/node-v12.16.2.tar.gz",
      "libUrl": "https://nodejs.org/download/release/v12.16.2/win-x64/node.lib"
    },
    "osName": "Windows_NT",
    "osRelease": "10.0.17763",
    "osVersion": "Windows 10 Home",
    "osMachine": "x86_64",
    "cpus": [
      {
        "model": "Intel(R) Core(TM) i3 CPU         540  @ 3.07GHz",
        "speed": 3059,
        "user": 1693921,
        "nice": 0,
        "sys": 895500,
        "idle": 6611796,
        "irq": 27578
      },
      {
        "model": "Intel(R) Core(TM) i3 CPU         540  @ 3.07GHz",
        "speed": 3059,
        "user": 1618859,
        "nice": 0,
        "sys": 817843,
        "idle": 6764218,
        "irq": 6281
      },
      {
        "model": "Intel(R) Core(TM) i3 CPU         540  @ 3.07GHz",
        "speed": 3059,
        "user": 1862140,
        "nice": 0,
        "sys": 875906,
        "idle": 6462859,
        "irq": 5640
      },
      {
        "model": "Intel(R) Core(TM) i3 CPU         540  @ 3.07GHz",
        "speed": 3059,
        "user": 1814906,
        "nice": 0,
        "sys": 716734,
        "idle": 6669265,
        "irq": 4203
      }
    ],
    "networkInterfaces": [
      {
        "name": "Ethernet 2",
        "internal": false,
        "mac": "70:71:bc:b5:03:f3",
        "address": "2804:7f3:8882:2a33:952:e00e:2565:49b6",
        "netmask": "ffff:ffff:ffff:ffff::",
        "family": "IPv6",
        "scopeid": 0
      },
      {
        "name": "Ethernet 2",
        "internal": false,
        "mac": "70:71:bc:b5:03:f3",
        "address": "2804:7f3:8882:2a33:cd7d:5912:42eb:36d3",
        "netmask": "ffff:ffff:ffff:ffff:ffff:ffff:ffff:ffff",
        "family": "IPv6",
        "scopeid": 0
      },
      {
        "name": "Ethernet 2",
        "internal": false,
        "mac": "70:71:bc:b5:03:f3",
        "address": "fe80::952:e00e:2565:49b6",
        "netmask": "ffff:ffff:ffff:ffff::",
        "family": "IPv6",
        "scopeid": 5
      },
      {
        "name": "Ethernet 2",
        "internal": false,
        "mac": "70:71:bc:b5:03:f3",
        "address": "192.168.15.8",
        "netmask": "255.255.255.0",
        "family": "IPv4"
      },
      {
        "name": "Loopback Pseudo-Interface 1",
        "internal": true,
        "mac": "00:00:00:00:00:00",
        "address": "::1",
        "netmask": "ffff:ffff:ffff:ffff:ffff:ffff:ffff:ffff",
        "family": "IPv6",
        "scopeid": 0
      },
      {
        "name": "Loopback Pseudo-Interface 1",
        "internal": true,
        "mac": "00:00:00:00:00:00",
        "address": "127.0.0.1",
        "netmask": "255.0.0.0",
        "family": "IPv4"
      }
    ],
    "host": "DESKTOP-3KQRPVN"
  },
  "javascriptStack": {
    "message": "No stack.",
    "stack": [
      "Unavailable."
    ]
  },
  "nativeStack": [
    {
      "pc": "0x00007ff75b612309",
      "symbol": ""
    },
    {
      "pc": "0x00007ff75b616869",
      "symbol": ""
    },
    {
      "pc": "0x00007ff75b6156e8",
      "symbol": ""
    },
    {
      "pc": "0x00007ff75b73dd82",
      "symbol": ""
    },
    {
      "pc": "0x00007ff75bf5a27e",
      "symbol": ""
    },
    {
      "pc": "0x00007ff75bf42351",
      "symbol": ""
    },
    {
      "pc": "0x00007ff75be0e8ac",
      "symbol": ""
    },
    {
      "pc": "0x00007ff75be16831",
      "symbol": ""
    },
    {
      "pc": "0x00007ff75be0be03",
      "symbol": ""
    },
    {
      "pc": "0x00007ff75be0a474",
      "symbol": ""
    },
    {
      "pc": "0x00007ff75be2b67d",
      "symbol": ""
    },
    {
      "pc": "0x00007ff75bb913d1",
      "symbol": ""
    },
    {
      "pc": "0x00007ff75c3a730d",
      "symbol": ""
    },
    {
      "pc": "0x00007ff75c36d4a7",
      "symbol": ""
    },
    {
      "pc": "0x00007ff75c32c2bc",
      "symbol": ""
    },
    {
      "pc": "0x00007ff75c32c2bc",
      "symbol": ""
    },
    {
      "pc": "0x00007ff75c32c2bc",
      "symbol": ""
    },
    {
      "pc": "0x00007ff75c32c2bc",
      "symbol": ""
    },
    {
      "pc": "0x00007ff75c32c2bc",
      "symbol": ""
    },
    {
      "pc": "0x00007ff75c32c2bc",
      "symbol": ""
    },
    {
      "pc": "0x00007ff75c3297f1",
      "symbol": ""
    },
    {
      "pc": "0x00007ff75c3293dc",
      "symbol": ""
    },
    {
      "pc": "0x00007ff75be67f63",
      "symbol": ""
    },
    {
      "pc": "0x00007ff75be678e6",
      "symbol": ""
    },
    {
      "pc": "0x00007ff75bf3895d",
      "symbol": ""
    },
    {
      "pc": "0x00007ff75b76658e",
      "symbol": ""
    },
    {
      "pc": "0x00007ff75b7667c7",
      "symbol": ""
    },
    {
      "pc": "0x00007ff75b764eaa",
      "symbol": ""
    },
    {
      "pc": "0x00007ff75b6f95cc",
      "symbol": ""
    },
    {
      "pc": "0x00007ff75b766223",
      "symbol": ""
    },
    {
      "pc": "0x00007ff75b5e6a9c",
      "symbol": ""
    },
    {
      "pc": "0x00007ff75c45f3f8",
      "symbol": ""
    },
    {
      "pc": "0x00007fff97087974",
      "symbol": ""
    },
    {
      "pc": "0x00007fff97b1a271",
      "symbol": ""
    }
  ],
  "javascriptHeap": {
    "totalMemory": 3194880,
    "totalCommittedMemory": 3194880,
    "usedMemory": 2423560,
    "availableMemory": 2195668072,
    "memoryLimit": 2197815296,
    "heapSpaces": {
      "read_only_space": {
        "memorySize": 262144,
        "committedMemory": 262144,
        "capacity": 32808,
        "used": 32808,
        "available": 0
      },
      "new_space": {
        "memorySize": 1048576,
        "committedMemory": 1048576,
        "capacity": 1047456,
        "used": 1047432,
        "available": 24
      },
      "old_space": {
        "memorySize": 1187840,
        "committedMemory": 1187840,
        "capacity": 951544,
        "used": 951368,
        "available": 176
      },
      "code_space": {
        "memorySize": 430080,
        "committedMemory": 430080,
        "capacity": 153152,
        "used": 153152,
        "available": 0
      },
      "map_space": {
        "memorySize": 266240,
        "committedMemory": 266240,
        "capacity": 238800,
        "used": 238800,
        "available": 0
      },
      "large_object_space": {
        "memorySize": 0,
        "committedMemory": 0,
        "capacity": 0,
        "used": 0,
        "available": 0
      },
      "code_large_object_space": {
        "memorySize": 0,
        "committedMemory": 0,
        "capacity": 0,
        "used": 0,
        "available": 0
      },
      "new_large_object_space": {
        "memorySize": 0,
        "committedMemory": 0,
        "capacity": 1047456,
        "used": 0,
        "available": 1047456
      }
    }
  },
  "resourceUsage": {
    "userCpuSeconds": 0.093,
    "kernelCpuSeconds": 0.062,
    "cpuConsumptionPercent": 15.5,
    "maxRss": 27308032,
    "pageFaults": {
      "IORequired": 6844,
      "IONotRequired": 0
    },
    "fsActivity": {
      "reads": 0,
      "writes": 5
    }
  },
  "libuv": [
  ],
  "workers": [
  ],
  "environmentVariables": {
    "=C:": "C:\\ionic\\pubnews_v5",
    "add_path": "C:\\cmder_mini",
    "aliases": "C:\\cmder_mini\\config\\user_aliases.cmd",
    "allusersprofile": "C:\\ProgramData",
    "android_sdk_root": "C:\\Users\\Marcio\\AppData\\Local\\Android\\Sdk",
    "appdata": "C:\\Users\\Marcio\\AppData\\Roaming",
    "architecture": "64",
    "architecture_bits": "64",
    "ccall": "call C:\\cmder_mini\\vendor\\bin\\cexec.cmd",
    "cexec": "C:\\cmder_mini\\vendor\\bin\\cexec.cmd",
    "chocolateyinstall": "C:\\ProgramData\\chocolatey",
    "chocolateylastpathupdate": "132274766794464535",
    "classpatch": "JAVA_HOME",
    "cmder_aliases": "1",
    "cmder_clink": "1",
    "cmder_configured": "1",
    "cmder_init_end": "19:37:31,41",
    "cmder_init_start": "19:37:11,88",
    "cmder_root": "C:\\cmder_mini",
    "cmder_shell": "cmd",
    "cmder_user_flags": " ",
    "commonprogramfiles": "C:\\Program Files\\Common Files",
    "commonprogramfiles(x86)": "C:\\Program Files (x86)\\Common Files",
    "commonprogramw6432": "C:\\Program Files\\Common Files",
    "computername": "DESKTOP-3KQRPVN",
    "comspec": "C:\\Windows\\system32\\cmd.exe",
    "debug_output": "0",
    "depth": "1",
    "dp0": "C:\\Users\\Marcio\\AppData\\Roaming\\npm\\",
    "driverdata": "C:\\Windows\\System32\\Drivers\\DriverData",
    "fast_init": "0",
    "feflagname": " ",
    "find_query": "C:\\\\cmder_mini",
    "force_color": "0",
    "found": "1",
    "git_executable": "C:\\Program Files\\Git\\cmd\\git.exe",
    "git_install_root": "C:\\Program Files\\Git",
    "git_locale": "\"C:\\Program Files\\Git\\usr\\bin\\locale.exe\"",
    "git_version_user": "2.26.0.windows.1",
    "google_api_key": "no",
    "google_default_client_id": "no",
    "google_default_client_secret": "no",
    "home": "C:\\Users\\Marcio",
    "homedrive": "C:",
    "homepath": "\\Users\\Marcio",
    "idea_initial_directory": "C:\\Windows\\System32",
    "ionic_cli_bin": "C:\\Users\\Marcio\\AppData\\Roaming\\npm\\node_modules\\@ionic\\cli\\bin\\ionic",
    "ionic_cli_lib": "C:\\Users\\Marcio\\AppData\\Roaming\\npm\\node_modules\\@ionic\\cli",
    "ionic_cli_local_error": "LOCAL_CLI_NOT_FOUND",
    "java_home": "C:\\Program Files (x86)\\Java\\jdk1.8.0_241",
    "lang": "pt_BR.UTF-8",
    "lib_base": "call \"C:\\cmder_mini\\vendor\\lib\\lib_base.cmd\"",
    "lib_console": "call \"C:\\cmder_mini\\vendor\\lib\\lib_console.cmd\"",
    "lib_git": "call \"C:\\cmder_mini\\vendor\\lib\\lib_git.cmd\"",
    "lib_path": "call \"C:\\cmder_mini\\vendor\\lib\\lib_path.cmd\"",
    "lib_profile": "call \"C:\\cmder_mini\\vendor\\lib\\lib_profile.cmd\"",
    "localappdata": "C:\\Users\\Marcio\\AppData\\Local",
    "logonserver": "\\\\DESKTOP-3KQRPVN",
    "max_depth": "1",
    "nix_tools": "1",
    "number_of_processors": "4",
    "old_path": "C:\\cmder_mini\\bin;C:\\cmder_mini\\vendor\\bin;C:\\ionic\\pubnews_v5\\node_modules\\.bin;C:\\Program Files (x86)\\Common Files\\Oracle\\Java\\javapath;C:\\Python27\\;C:\\Python27\\Scripts;C:\\Windows\\system32;C:\\Windows;C:\\Windows\\System32\\Wbem;C:\\Windows\\System32\\WindowsPowerShell\\v1.0\\;C:\\Windows\\System32\\OpenSSH\\;C:\\Program Files (x86)\\Bitvise SSH Client;C:\\ProgramData\\chocolatey\\bin;C:\\Gradle\\gradle-6.2.2\\bin;C:\\Users\\Marcio\\AppData\\Local\\Android\\Sdk\\platform-tools;C:\\Program Files\\Ampps\\php-5.6;C:\\composer;C:\\Program Files (x86)\\Java\\jdk1.8.0_241\\bin;C:\\Users\\Marcio\\AppData\\Local\\Android\\Sdk\\tools;C:\\Users\\Marcio\\AppData\\Local\\Android\\Sdk\\platforms-tools;C:\\Users\\Marcio\\AppData\\Local\\Android\\Sdk\\emulator;C:\\Program Files (x86)\\Java\\jre1.8.0_241\\bin;C:\\Program Files\\Git\\cmd;C:\\Program Files\\nodejs\\;C:\\Users\\Marcio\\AppData\\Local\\Microsoft\\WindowsApps;C:\\Users\\Marcio\\AppData\\Local\\Programs\\Microsoft VS Code\\bin;C:\\Users\\Marcio\\AppData\\Roaming\\Composer\\vendor\\bin;C:\\Program Files\\JetBrains\\PhpStorm 2019.3.3\\bin;C:\\Users\\Marcio\\AppData\\Roaming\\npm;C:\\Program Files\\Git\\mingw64\\bin;C:\\Program Files\\Git\\usr\\bin;C:\\cmder_mini",
    "onedrive": "C:\\Users\\Marcio\\OneDrive",
    "os": "Windows_NT",
    "path": "C:\\ionic\\pubnews_v5\\node_modules\\.bin;C:\\cmder_mini\\bin;C:\\cmder_mini\\vendor\\bin;C:\\ionic\\pubnews_v5\\node_modules\\.bin;C:\\Program Files (x86)\\Common Files\\Oracle\\Java\\javapath;C:\\Python27\\;C:\\Python27\\Scripts;C:\\Windows\\system32;C:\\Windows;C:\\Windows\\System32\\Wbem;C:\\Windows\\System32\\WindowsPowerShell\\v1.0\\;C:\\Windows\\System32\\OpenSSH\\;C:\\Program Files (x86)\\Bitvise SSH Client;C:\\ProgramData\\chocolatey\\bin;C:\\Gradle\\gradle-6.2.2\\bin;C:\\Users\\Marcio\\AppData\\Local\\Android\\Sdk\\platform-tools;C:\\Program Files\\Ampps\\php-5.6;C:\\composer;C:\\Program Files (x86)\\Java\\jdk1.8.0_241\\bin;C:\\Users\\Marcio\\AppData\\Local\\Android\\Sdk\\tools;C:\\Users\\Marcio\\AppData\\Local\\Android\\Sdk\\platforms-tools;C:\\Users\\Marcio\\AppData\\Local\\Android\\Sdk\\emulator;C:\\Program Files (x86)\\Java\\jre1.8.0_241\\bin;C:\\Program Files\\Git\\cmd;C:\\Program Files\\nodejs\\;C:\\Users\\Marcio\\AppData\\Local\\Microsoft\\WindowsApps;C:\\Users\\Marcio\\AppData\\Local\\Programs\\Microsoft VS Code\\bin;C:\\Users\\Marcio\\AppData\\Roaming\\Composer\\vendor\\bin;C:\\Program Files\\JetBrains\\PhpStorm 2019.3.3\\bin;C:\\Users\\Marcio\\AppData\\Roaming\\npm;C:\\Program Files\\Git\\mingw64\\bin;C:\\Program Files\\Git\\usr\\bin;C:\\cmder_mini",
    "pathext": ".COM;.EXE;.BAT;.CMD;.VBS;.VBE;.JSE;.WSF;.WSH;.MSC",
    "path_position": "append",
    "phpstorm": "C:\\Program Files\\JetBrains\\PhpStorm 2019.3.3\\bin;",
    "plink_protocol": "ssh",
    "processor_architecture": "AMD64",
    "processor_identifier": "Intel64 Family 6 Model 37 Stepping 5, GenuineIntel",
    "processor_level": "6",
    "processor_revision": "2505",
    "programdata": "C:\\ProgramData",
    "programfiles": "C:\\Program Files",
    "programfiles(x86)": "C:\\Program Files (x86)",
    "programw6432": "C:\\Program Files",
    "prompt": "C\bL\bI\bN\bK\b \b$P$G",
    "psmodulepath": "C:\\Program Files\\WindowsPowerShell\\Modules;C:\\Windows\\system32\\WindowsPowerShell\\v1.0\\Modules",
    "public": "C:\\Users\\Public",
    "svn_ssh": "C:\\\\Program Files\\\\Git\\\\bin\\\\ssh.exe",
    "systemdrive": "C:",
    "systemroot": "C:\\Windows",
    "temp": "C:\\Users\\Marcio\\AppData\\Local\\Temp",
    "term": "cygwin",
    "terminal_emulator": "JetBrains-JediTerm",
    "time_init": "0",
    "tmp": "C:\\Users\\Marcio\\AppData\\Local\\Temp",
    "userdomain": "DESKTOP-3KQRPVN",
    "userdomain_roamingprofile": "DESKTOP-3KQRPVN",
    "username": "Marcio",
    "userprofile": "C:\\Users\\Marcio",
    "user_aliases": "C:\\cmder_mini\\config\\user_aliases.cmd",
    "user_build": "windows.1",
    "user_major": "2",
    "user_minor": "26",
    "user_patch": "0",
    "verbose_output": "0",
    "windir": "C:\\Windows",
    "_java_options": "-Xmx1028M",
    "_prog": "node",
    "__compat_layer": "RunAsAdmin",
    "__intellij_command_histfile__": "C:\\Users\\Marcio\\AppData\\Roaming\\JetBrains\\PhpStorm2020.1\\terminal\\history\\history-56"
  },
  "sharedObjects": [
    "C:\\Program Files\\nodejs\\node.exe",
    "C:\\Windows\\SYSTEM32\\ntdll.dll",
    "C:\\Windows\\System32\\KERNEL32.DLL",
    "C:\\Windows\\System32\\KERNELBASE.dll",
    "C:\\Windows\\SYSTEM32\\apphelp.dll",
    "C:\\Windows\\System32\\WS2_32.dll",
    "C:\\Windows\\System32\\RPCRT4.dll",
    "C:\\Windows\\System32\\PSAPI.DLL",
    "C:\\Windows\\System32\\ADVAPI32.dll",
    "C:\\Windows\\System32\\msvcrt.dll",
    "C:\\Windows\\System32\\sechost.dll",
    "C:\\Windows\\System32\\USER32.dll",
    "C:\\Windows\\System32\\win32u.dll",
    "C:\\Windows\\System32\\GDI32.dll",
    "C:\\Windows\\System32\\gdi32full.dll",
    "C:\\Windows\\System32\\msvcp_win.dll",
    "C:\\Windows\\System32\\ucrtbase.dll",
    "C:\\Windows\\System32\\CRYPT32.dll",
    "C:\\Windows\\System32\\MSASN1.dll",
    "C:\\Windows\\System32\\bcrypt.dll",
    "C:\\Windows\\SYSTEM32\\dbghelp.dll",
    "C:\\Windows\\SYSTEM32\\IPHLPAPI.DLL",
    "C:\\Windows\\SYSTEM32\\USERENV.dll",
    "C:\\Windows\\System32\\profapi.dll",
    "C:\\Windows\\SYSTEM32\\WINMM.dll",
    "C:\\Windows\\SYSTEM32\\WINMMBASE.dll",
    "C:\\Windows\\System32\\cfgmgr32.dll",
    "C:\\Windows\\System32\\IMM32.DLL",
    "C:\\Windows\\System32\\powrprof.dll",
    "C:\\Windows\\SYSTEM32\\CRYPTBASE.DLL",
    "C:\\Windows\\System32\\bcryptPrimitives.dll",
    "C:\\Windows\\system32\\uxtheme.dll",
    "C:\\Windows\\System32\\combase.dll",
    "C:\\Windows\\system32\\mswsock.dll",
    "C:\\Windows\\System32\\kernel.appcore.dll",
    "C:\\Windows\\System32\\NSI.dll",
    "C:\\Windows\\SYSTEM32\\dhcpcsvc6.DLL",
    "C:\\Windows\\SYSTEM32\\dhcpcsvc.DLL",
    "C:\\Windows\\SYSTEM32\\DNSAPI.dll",
    "C:\\Windows\\system32\\pnrpnsp.dll",
    "C:\\Windows\\System32\\winrnr.dll",
    "C:\\Windows\\system32\\NLAapi.dll",
    "C:\\Windows\\system32\\wshbth.dll"
  ]
}